user level
------------

}elseif($data['ROLES']=="24"){
	$_SESSION['ROLES']="24";
	header("location:index.php?link=js1");		

switch
-------------
	//Jaspel
	case 'js1'            :
        if (!file_exists ("jaspel/index.php"))
        die ("jaspel/index.php File Empty!");
        include 'jaspel/index.php';
        break;	

menu
--------------

<?php
}elseif($_SESSION['ROLES']=="24"){
?>
<div id="menu">
    	<div id="menu_nama">	
  		<div class="header">		
 <a href="jaspel_rj.php?page=1" onclick="processajax ('jaspel/jaspel_rj.php','pagecont','get',''); return false;">UNIT RAWAT JALAN</a>
 <a href="jaspel_ok.php?page=2" onclick="processajax ('jaspel/jaspel_ok.php','pagecont','get',''); return false;">UNIT  KAMAR OPERASI</a> 
 <a href="jaspel_ugd.php?page=3" onclick="processajax ('jaspel/jaspel_ugd.php','pagecont','get',''); return false;">VK UGD</a>
 <a href="jaspel_ranap.php?page=4" onclick="processajax ('jaspel/jaspel_ranap.php','pagecont','get',''); return false;">RAWAT  INAP</a>
 <a href="jaspel_lab.php?page=5" onclick="processajax ('jaspel/jaspel_lab.php','pagecont','get',''); return false;">LABORATORIUM</a>
 <a href="jaspel_rad.php?page=6" onclick="processajax ('jaspel/jaspel_rad.php','pagecont','get',''); return false;"> RADIOLOGI</a>
 <a href="jaspel_manajemen.php?page=7" onclick="processajax ('jaspel/jaspel_manajemen.php','pagecont','get',''); return false;">MANAJEMEN</a> <a href="jaspel_pendukung.php?page=8" onclick="processajax ('jaspel/jaspel_pendukung.php','pagecont','get',''); return false;">PENDUKUNG</a>
 		</div>
 		</div>
     </div>
<?php

index.php (root)
---------------------
<!--Jaspel-->
<script type="text/javascript" src="jaspel/ajakku.js"></script>



m_login

username	password	ses_reg					ROLES	KDUNIT	Departemen
----------------------------------------------------------------------------------------------------
jaspel 		jaspel 		e4947ddc168cf103e9f833340bffa7f5 	24 	25 	Jaspel