Kdrs;Klsrs;Norm;Klsrawat;Biaya;Jnsrawat;Tglmsk;Tglklr;Los;Tgllhr;UmurThn;UmurHari;JK;CaraPlg;Berat;Dutama;D1;D2;D3;D4;D5;D6;D7;D8;D9;D10;D11;D12;D13;D14;D15;D16;D17;D18;D19;D20;D21;D22;D23;D24;D25;D26;D27;D28;D29;P1;P2;P3;P4;P5;P6;P7;P8;P9;P10;P11;P12;P13;P14;P15;P16;P17;P18;P19;P20;P21;P22;P23;P24;P25;P26;P27;P28;P29;P30;Recid;Inacbg;Tarif;Deskripsi;ALOS;NamaPasien;DPJP;SKP;Rujukan;BHP;HargaBHP;PengesahanSL3;C1;C2;C3
;;000001;KLSRAWAT;30000.00;;2013-03-04;2013-03-04;;2013-01-01;0;63;L;0;;;;;;;;;;;;;;;;;;;;;;;;;;;;;;;;;;;;;;;;;;;;;;;;;;;;;;;;;;;;;;;;0;;0;Bopak, An;;1^0;0;;0;tidak ada;;1;
;;000002;KLSRAWAT;30000.00;;2013-03-04;2013-03-04;;2012-01-01;1;429;L;1;;;;;;;;;;;;;;;;;;;;;;;;;;;;;;;;;;;;;;;;;;;;;;;;;;;;;;;;;;;;;;;;0;;0;Bnk;;1^0;0;;0;tidak ada;;1;
;;000002;KLSRAWAT;30000.00;;2013-03-04;2013-03-04;;2012-01-01;1;429;L;0;;;;;;;;;;;;;;;;;;;;;;;;;;;;;;;;;;;;;;;;;;;;;;;;;;;;;;;;;;;;;;;;0;;0;Bnk;;1^0;0;;0;tidak ada;;1;
